# Blender MTL File: 'None'
# Material Count: 3

newmtl Floor
Ns 0.000000
Ka 1.000000 1.000000 1.000000
Kd 1.000000 1.000000 1.000000
Ks 0.000000 0.000000 0.000000
Ke 0.000000 0.000000 0.000000
Ni 1.450000
d 1.000000
illum 1
map_Kd tex\\Wood_Floor_002_Diffiuse.jpg

newmtl Wall
Ns 0.000000
Ka 1.000000 1.000000 1.000000
Kd 0.303459 0.116367 0.084199
Ks 0.000000 0.000000 0.000000
Ke 0.000000 0.000000 0.000000
Ni 1.450000
d 1.000000
illum 1
map_Kd tex\\brick-wall-1916752.jpg

newmtl default
Ns 0.000000
Ka 1.000000 1.000000 1.000000
Kd 1.000000 1.000000 1.000000
Ks 0.000000 0.000000 0.000000
Ke 0.000000 0.000000 0.000000
Ni 1.450000
d 1.000000
illum 1
