# 3ds Max Wavefront OBJ Exporter v0.97b - (c)2007 guruware
# File Created: 03.05.2013 14:01:05

newmtl _20344_Jukebox_bubbler_style_V220344_Jukebox_bubbler_style
	Ns 19.0000
	Ni 1.5000
	d 1.0000
	Tr 0.0000
	Tf 1.0000 1.0000 1.0000 
	illum 2
	Ka 1.0000 1.0000 1.0000
	Kd 1.0000 1.0000 1.0000
	Ks 0.4320 0.4320 0.4320
	Ke 0.0000 0.0000 0.0000
	map_Ka 20344_Jukebox_bubbler_style_Diffuse.jpg
	map_Kd 20344_Jukebox_bubbler_style_Diffuse.jpg
