# Blender MTL File: 'None'
# Material Count: 1

newmtl Material.003
Ns 728.999961
Ka 1.000000 1.000000 1.000000
Kd 0.094236 0.272191 0.057914
Ks 0.500000 0.500000 0.500000
Ke 0.000000 0.000000 0.000000
Ni 1.000000
d 1.000000
illum 2
